…
summary() reimagined

Recreate the summary() function using summarize() (i.e., produce all the same statistics) for a variable of your choice.

4.3 Stratified summary statistics

Note the grouping information that gets printed out when you use group_by():

# grouped dataset
nlsy %>%
  mutate(income_stand = (income - mean(income))/sd(income)) %>%
  select(id, region, income_stand, race_eth, sex) %>%
  group_by(race_eth)

#>  # A tibble: 1,205 x 5
#>  # Groups:   race_eth [3]
#>        id region income_stand race_eth   sex
#>     <dbl>  <dbl>        <dbl>    <dbl> <dbl>
#>   1     3      1        0.533        3     2
#>   2     6      1        1.48         3     1
#>   3     8      1       -0.605        3     2
#>   4    16      1        2.45         3     2
#>   5    18      3       -0.809        3     1
#>   6    20      1        2.60         3     2
#>   7    27      1        0.353        3     2
#>   8    49      1        0.646        3     2
#>   9    57      1        0.600        3     2
#>  10    67      1        1.48         3     1
#>  # … with 1,195 more rows
…
