Introduction to R
…
---
# Dataframes

We usually do analysis in R with dataframes (or some variant).

Dataframes are basically like spreadsheets: columns are variables, and rows are observations.

```r
gss_cat
```

```
## # A tibble: 21,483 x 9
##     year marital       age race  rincome      partyid       relig        denom        tvhours
##    <int> <fct>       <int> <fct> <fct>        <fct>         <fct>        <fct>          <int>
##  1  2000 Never marr…    26 White $8000 to 99… Ind,near rep  Protestant   Southern ba…      12
##  2  2000 Divorced       48 White $8000 to 99… Not str repu… Protestant   Baptist-dk …      NA
##  3  2000 Widowed        67 White Not applica… Independent   Protestant   No denomina…       2
##  4  2000 Never marr…    39 White Not applica… Ind,near rep  Orthodox-ch… Not applica…       4
##  5  2000 Divorced       25 White Not applica… Not str demo… None         Not applica…       1
##  6  2000 Married        25 White $20000 - 24… Strong democ… Protestant   Southern ba…      NA
##  7  2000 Never marr…    36 White $25000 or m… Not str repu… Christian    Not applica…       3
##  8  2000 Divorced       44 White $7000 to 79… Ind,near dem  Protestant   Lutheran-mo…      NA
##  9  2000 Married        44 White $25000 or m… Not str demo… Protestant   Other              0
## 10  2000 Married        47 White $25000 or m… Strong repub… Protestant   Southern ba…       3
## # … with 21,473 more rows
```
…
# *tibble*???

---
# tibbles are basically just pretty dataframes

.pull-left[

```r
as_tibble(gss_cat)[, 1:4]
```

```
# A tibble: 21,483 x 4
    year marital         age race 
   <int> <fct>         <int> <fct>
 1  2000 Never married    26 White
 2  2000 Divorced         48 White
 3  2000 Widowed          67 White
 4  2000 Never married    39 White
 5  2000 Divorced         25 White
 6  2000 Married          25 White
 7  2000 Never married    36 White
 8  2000 Divorced         44 White
 9  2000 Married          44 White
10  2000 Married          47 White
# … with 21,473 more rows
```
…
