Introduction to R
…
#### We've made approximately 1000 new variables!

You don't want to keep them all. You'll get confused, and when you go to summarize your data it will take pages.

Luckily there's an easy way to select the variables you want: `select()`!

```r
nlsy_subs <- `select`(nlsy, id, income, eyesight, sex, region)
nlsy_subs
```

```
## # A tibble: 1,205 x 5
##      id income eyesight   sex region
##   <dbl>  <dbl>    <dbl> <dbl>  <dbl>
## 1     3  22390        1     2      1
## 2     6  35000        2     1      1
## 3     8   7227        2     2      1
## 4    16  48000        3     2      1
## 5    18   4510        3     1      3
## 6    20  50000        2     2      1
## # … with 1,199 more rows
```
---

# `select()` syntax

- Like `mutate()`, the first argument is the dataset you want to select from
- Then you can just list the variables you want!
- Or you can list the variables you *don't* want, preceded by an exclamation point (`!`) or a minus sign (`-`)
- There are also a lot of "helpers"!

```r
select(nlsy_subs, `!`c(id, region))
```

```
## # A tibble: 1,205 x 3
##   income eyesight   sex
##    <dbl>    <dbl> <dbl>
## 1  22390        1     2
## 2  35000        2     1
## 3   7227        2     2
## 4  48000        3     2
## 5   4510        3     1
## # … with 1,200 more rows
```

---
# `all_of()`

Notice that the variable names we used in `select()` weren't in quotation marks.

Let's say you have a list of column names that you want. Then you can use `all_of()` to choose them.

```r
cols_I_want <- c("age_bir", "nsibs", "region")
select(nlsy, `all_of`(cols_I_want))
```

```
## # A tibble: 1,205 x 3
##   age_bir nsibs region
##     <dbl> <dbl>  <dbl>
## 1      19     3      1
## 2      30     1      1
## 3      17     7      1
## 4      31     3      1
## 5      19     2      3
## # … with 1,200 more rows
```
…
Do you have a lot of variables that are alike in some way? And you want to find all of them? Try:
- `starts_with()`
- `ends_with()`
- `contains()`
- `matches()` (like contains, but for regular expressions)
- `num_range()` (for patterns like `x01`, `x02`, ...)

```r
select(nlsy, `starts_with`("slp"))
```

```
## # A tibble: 1,205 x 7
##   slp_wkdy_cat slp_cat_wkdy slp_cat_wkdy_ord slp_cat_wkdy_or… slp_cat_wkdy_out
##   <chr>        <fct>        <fct>            <fct>            <fct>           
## 1 some         some         some             some             some            
## 2 some         some         some             some             some            
## # … with 1,203 more rows, and 2 more variables: slp_cat_wkdy_comb <fct>,
## #   slp_cat_wkdy_lump <fct>
```

---
# Reordering variables

Sometimes you don't want to get rid of the other variables, you just want to move things around. Then use `relocate()`:

Let's move `id` to be the first column:

```r
nlsy <- `relocate`(nlsy, id)
nlsy
```

```
## # A tibble: 1,205 x 26
##      id glasses eyesight sleep_wkdy sleep_wknd nsibs  samp race_eth   sex region income
##   <dbl>   <dbl>    <dbl>      <dbl>      <dbl> <dbl> <dbl>    <dbl> <dbl>  <dbl>  <dbl>
## 1     3       0        1          5          7     3     5        3     2      1  22390
## 2     6       1        2          6          7     1     1        3     1      1  35000
## 3     8       0        2          7          9     7     6        3     2      1   7227
## 4    16       1        3          6          7     3     5        3     2      1  48000
## # … with 1,201 more rows, and 15 more variables: res_1980 <dbl>, res_2002 <dbl>,
## #   age_bir <dbl>, region_factor <fct>, age_bir_cent <dbl>, index <int>, slp_wkdy_cat <chr>,
## #   slp_cat_wkdy <fct>, total_sleep <dbl>, slp_cat_wkdy_ord <fct>, slp_cat_wkdy_ord2 <fct>,
## #   region_fact <fct>, slp_cat_wkdy_out <fct>, slp_cat_wkdy_comb <fct>,
## #   slp_cat_wkdy_lump <fct>
```

---
# Reordering variables

You can relocate multiple variables to the beginning, or specify where they should show up

Let's move `sex` and `region` to be after `id`:

```r
relocate(nlsy, sex, region, `.after` = id)
```

```
## # A tibble: 1,205 x 26
##      id   sex region glasses eyesight sleep_wkdy sleep_wknd nsibs  samp race_eth income
##   <dbl> <dbl>  <dbl>   <dbl>    <dbl>      <dbl>      <dbl> <dbl> <dbl>    <dbl>  <dbl>
## 1     3     2      1       0        1          5          7     3     5        3  22390
## 2     6     1      1       1        2          6          7     1     1        3  35000
## 3     8     2      1       0        2          7          9     7     6        3   7227
## 4    16     2      1       1        3          6          7     3     5        3  48000
## 5    18     1      3       0        3         10         10     2     1        3   4510
## # … with 1,200 more rows, and 15 more variables: res_1980 <dbl>, res_2002 <dbl>,
## #   age_bir <dbl>, region_factor <fct>, age_bir_cent <dbl>, index <int>, slp_wkdy_cat <chr>,
## #   slp_cat_wkdy <fct>, total_sleep <dbl>, slp_cat_wkdy_ord <fct>, slp_cat_wkdy_ord2 <fct>,
## #   region_fact <fct>, slp_cat_wkdy_out <fct>, slp_cat_wkdy_comb <fct>,
## #   slp_cat_wkdy_lump <fct>
```

---
# Select variables to **do** something to them

This can get a bit confusing (and "best practices" have recently changed), so we won't go into details, but you can put all these tools together:

```r
nlsy <- mutate(rowwise(nlsy), 
               sleep_avg = mean(c_across(`starts_with`("sleep"))))
select(nlsy, `starts_with`("sleep"))
```

```
## # A tibble: 1,205 x 3
##   sleep_wkdy sleep_wknd sleep_avg
##        <dbl>      <dbl>     <dbl>
## 1          5          7       6  
## 2          6          7       6.5
## 3          7          9       8  
## 4          6          7       6.5
## 5         10         10      10  
## 6          7          8       7.5
## # … with 1,199 more rows
```
---
# Select variables to **do** something to them

```r
nlsy <- nlsy %>%
  mutate(across(`starts_with`("sleep"), ~ .x * 60, .names = "{col}_mins"))
select(nlsy, `starts_with`("sleep"))
```

```
## # A tibble: 1,205 x 6
##   sleep_wkdy sleep_wknd sleep_avg sleep_wkdy_mins sleep_wknd_mins sleep_avg_mins
##        <dbl>      <dbl>     <dbl>           <dbl>           <dbl>          <dbl>
## 1          5          7       6               300             420            360
## 2          6          7       6.5             360             420            390
## 3          7          9       8               420             540            480
## 4          6          7       6.5             360             420            390
## 5         10         10      10               600             600            600
## 6          7          8       7.5             420             480            450
## # … with 1,199 more rows
```
…
