Introduction to R
…
```
## # A tibble: 1,128 x 5
##      id   sex race_eth glasses eyesight
##   <dbl> <dbl>    <dbl>   <dbl>    <dbl>
## 1     3     2        3       0        1
## 2     6     1        3       1        2
## 3     8     2        3       0        2
## 4    16     2        3       1        3
## 5    18     1        3       0        3
## 6    20     2        3       1        2
## 7    27     2        3       0        1
## # … with 1,121 more rows
```
…
---
# What if we want to change the variable

There are more "official" ways to deal with this that are beyond the scope of this class, but there's usually a workaround to be able to write your variable name as a character string instead.

Consider that we can rename a variable using the `rename()` function, which **is** a function that can take variable names in quotes:

```r
nlsy %>%
  rename(eyeglasses = "glasses")
```

```
## # A tibble: 1,205 x 10
##   eyeglasses eyesight sleep_wkdy sleep_wknd    id nsibs  samp race_eth   sex region
##        <dbl>    <dbl>      <dbl>      <dbl> <dbl> <dbl> <dbl>    <dbl> <dbl>  <dbl>
## 1          0        1          5          7     3     3     5        3     2      1
## 2          1        2          6          7     6     1     1        3     1      1
## 3          0        2          7          9     8     7     6        3     2      1
## 4          1        3          6          7    16     3     5        3     2      1
## 5          0        3         10         10    18     2     1        3     1      3
## 6          1        2          7          8    20     2     5        3     2      1
## 7          0        1          8          8    27     1     5        3     2      1
## # … with 1,198 more rows
```
…
---
# Make a series of consecutive variables factors
.large[

```r
nlsy %>%
  mutate(across(c(race_eth:region), factor))
```

```
## # A tibble: 1,205 x 14
##    glasses eyesight sleep_wkdy sleep_wknd    id nsibs  samp race_eth sex   region income
##      <dbl>    <dbl>      <dbl>      <dbl> <dbl> <dbl> <dbl> <fct>    <fct> <fct>   <dbl>
##  1       0        1          5          7     3     3     5 3        2     1       22390
##  2       1        2          6          7     6     1     1 3        1     1       35000
##  3       0        2          7          9     8     7     6 3        2     1        7227
##  4       1        3          6          7    16     3     5 3        2     1       48000
##  5       0        3         10         10    18     2     1 3        1     3        4510
##  6       1        2          7          8    20     2     5 3        2     1       50000
##  7       0        1          8          8    27     1     5 3        2     1       20000
##  8       1        1          8          8    49     6     5 3        2     1       23900
##  9       1        2          7          8    57     1     5 3        2     1       23289
## 10       0        1          8          8    67     1     1 3        1     1       35000
## # … with 1,195 more rows, and 3 more variables: res_1980 <dbl>, res_2002 <dbl>,
## #   age_bir <dbl>
```
]

---
# Rename all your variables
.large[

```r
nlsy %>%
  rename_with(toupper)
```

```
## # A tibble: 1,205 x 14
##    GLASSES EYESIGHT SLEEP_WKDY SLEEP_WKND    ID NSIBS  SAMP RACE_ETH   SEX REGION INCOME
##      <dbl>    <dbl>      <dbl>      <dbl> <dbl> <dbl> <dbl>    <dbl> <dbl>  <dbl>  <dbl>
##  1       0        1          5          7     3     3     5        3     2      1  22390
##  2       1        2          6          7     6     1     1        3     1      1  35000
##  3       0        2          7          9     8     7     6        3     2      1   7227
##  4       1        3          6          7    16     3     5        3     2      1  48000
##  5       0        3         10         10    18     2     1        3     1      3   4510
##  6       1        2          7          8    20     2     5        3     2      1  50000
##  7       0        1          8          8    27     1     5        3     2      1  20000
##  8       1        1          8          8    49     6     5        3     2      1  23900
##  9       1        2          7          8    57     1     5        3     2      1  23289
## 10       0        1          8          8    67     1     1        3     1      1  35000
## # … with 1,195 more rows, and 3 more variables: RES_1980 <dbl>, RES_2002 <dbl>,
## #   AGE_BIR <dbl>
```
…
