…
We’re using some data from the National Longitudinal Survey of Youth 1979, a cohort of American young adults aged 14-22 at enrollment in 1979. They continue to be followed to this day, and there is a wealth of publicly available data online. I’ve downloaded the answers to a survey question about whether respondents wear glasses, a scale about their eyesight with glasses, their (NLSY-assigned 😒) race/ethnicity, their sex, their family’s income in 1979, and their age at the birth of their first child.

Reading in data

I’ve saved the dataset as a csv file. We can read this into R using the read_csv() function, which is loaded with the tidyverse. For now we’ll load it from the internet. We’ll talk about other options for reading in data later in the course!

library(tidyverse)
nlsy <- read_csv("https://intro-to-R-2020.louisahsmith.com/data/nlsy_cc.csv")

We can explore the data with a number of functions that we apply to either the whole dataset, or to a single variable in the dataset. Here are a couple of ways we can look at the whole dataset:

nlsy

#>  # A tibble: 1,205 x 14
#>     glasses eyesight sleep_wkdy sleep_wknd    id nsibs  samp race_eth   sex region income
#>       <dbl>    <dbl>      <dbl>      <dbl> <dbl> <dbl> <dbl>    <dbl> <dbl>  <dbl>  <dbl>
#>   1       0        1          5          7     3     3     5        3     2      1  22390
#>   2       1        2          6          7     6     1     1        3     1      1  35000
#>   3       0        2          7          9     8     7     6        3     2      1   7227
#>   4       1        3          6          7    16     3     5        3     2      1  48000
#>   5       0        3         10         10    18     2     1        3     1      3   4510
#>   6       1        2          7          8    20     2     5        3     2      1  50000
#>   7       0        1          8          8    27     1     5        3     2      1  20000
#>   8       1        1          8          8    49     6     5        3     2      1  23900
#>   9       1        2          7          8    57     1     5        3     2      1  23289
#>  10       0        1          8          8    67     1     1        3     1      1  35000
#>  # … with 1,195 more rows, and 3 more variables: res_1980 <dbl>, res_2002 <dbl>, age_bir <dbl>
…
