…
count(nlsy, nsibs)

#>  # A tibble: 25 x 2
#>     nsibs     n
#>     <dbl> <int>
#>   1    -3    14
#>   2    -2     3
#>   3    -1     1
#>   4     0   362
#>   5     1  1611
#>   6     2  2530
#>   7     3  2412
#>   8     4  1783
#>   9     5  1198
#>  10     6   933
#>  # … with 15 more rows
…
count(nlsy, nsibs)

#>  # A tibble: 23 x 2
#>     nsibs     n
#>     <dbl> <int>
#>   1     0   362
#>   2     1  1611
#>   3     2  2530
#>   4     3  2412
#>   5     4  1783
#>   6     5  1198
#>   7     6   933
#>   8     7   634
#>   9     8   421
#>  10     9   289
#>  # … with 13 more rows
…
